[
  {
    "id": "#device_type",
    "type": "auto",
    "name": "Phone type",
    "note": "iPhone, Android, ...",
    "status": "blocker",
    "deviceType": "iphone, android"
  },
  {
    "id": "#brand",
    "type": "auto",
    "name": "Mark",
    "note": "Brand of mobile device (Samsung, Apple, ...)",
    "status": "blocker",
    "deviceType": "iphone, android"
  },
  {
    "id": "#model",
    "type": "auto",
    "name": "Model",
    "note": "Model of the mobile device (smartphone)",
    "status": "blocker",
    "deviceType": "iphone, android"
  },
  {
    "id": "#total_memory",
    "type": "auto",
    "name": "Flash Volume (Internal)",
    "note": "The volume of the internal storage of the mobile device",
    "status": "blocker",
    "deviceType": "iphone, android"
  },
  {
    "id": "#imei",
    "type": "auto",
    "name": "IMEI",
    "note": "IMEI Device ID",
    "status": "blocker",
    "deviceType": "iphone, android"
  },
  {
    "id": "# imei_2",
    "type": "auto",
    "name": "IMEI 2",
    "note": "IMEI device identifier of the second SIM card slot",
    "status": "ignore",
    "deviceType": "android"
  },
  {
    "id": "#serial",
    "type": "auto",
    "name": "SN",
    "note": "Serial number of the mobile device (smartphone)",
    "status": "blocker",
    "deviceType": "iphone, android"
  },
  {
    "id": "#warranty_bit",
    "negative": true,
    "type": "auto",
    "name": "KNOX WARRANTY VOID bits",
    "note": "",
    "status": "blocker",
    "deviceType": "android"
  },
  {
    "id": "#version",
    "type": "auto",
    "name": "OS version",
    "note": "The version of the operating system of the mobile device (smartphone",
    "status": "blocker",
    "deviceType": "iphone, android"
  },
  {
    "id": "#device_phone_count",
    "type": "auto",
    "name": "Number of SIM cards",
    "note": "Number of supported SIM cards",
    "status": "blocker",
    "deviceType": "android"
  },
  {
    "id": "#wifi",
    "type": "auto",
    "name": "WiFi",
    "note": "",
    "status": "blocker",
    "deviceType": "iphone, android"
  },
  {
    "id": "#bluetooth",
    "type": "auto",
    "name": "Bluetooth",
    "note": "",
    "status": "blocker",
    "deviceType": "iphone, android"
  },
  {
    "id": "#battery_begin",
    "type": "auto",
    "name": "Battery level at the beginning of the test",
    "note": "",
    "status": "blocker",
    "deviceType": "iphone, android"
  },
  {
    "id": "#battery_end",
    "type": "auto",
    "name": "Battery level at the end of the test",
    "note": "",
    "status": "blocker",
    "deviceType": "iphone, android"
  },
  {
    "id": "#device_color",
    "type": "auto_manual",
    "name": "Color",
    "note": "Specified manually from a set of typical colors",
    "status": "normal",
    "deviceType": "iphone, android"
  },
  {
    "id": "#touchscreen",
    "type": "auto_manual",
    "name": "Touchscreen",
    "note": "",
    "status": "blocker",
    "deviceType": "iphone, android"
  },
  {
    "id": "#screen_quality",
    "type": "auto_manual",
    "name": "Screen quality (dead pixels)",
    "note": "",
    "status": "blocker",
    "deviceType": "iphone, android"
  },
  {
    "id": "#water",
    "negative": true,
    "type": "manual",
    "name": "Moisture under the glass of the screen",
    "note": "Turn off the display, look at different angles. Repeat the process when the display is on",
    "status": "blocker",
    "deviceType": "iphone, android"
  },
  {
    "id": "#accelerometer",
    "type": "auto_manual",
    "name": "Accelerometer",
    "note": "",
    "status": "blocker",
    "deviceType": "iphone, android"
  },
  {
    "id": "#vibrate",
    "type": "auto_manual",
    "name": "Vibration",
    "note": "Checking the operation of vibration on a mobile device",
    "status": "blocker",
    "deviceType": "iphone, android"
  },
  {
    "id": "#mute",
    "type": "auto_manual",
    "name": "Silent mode switch",
    "note": "Checking the operation of the silent switch",
    "status": "blocker",
    "deviceType": "iphone"
  },
  {
    "id": "#speakers",
    "type": "auto_manual",
    "name": "External speakers",
    "note": "Checking the operation of external speakers on a mobile device",
    "status": "blocker",
    "deviceType": "iphone, android"
  },
  {
    "id": "#camera_back",
    "type": "auto_manual",
    "name": "Rear Camera",
    "note": "Checking the operation of the main camera of the mobile device",
    "status": "blocker",
    "deviceType": "iphone, android"
  },
  {
    "id": "#camera_front",
    "type": "auto_manual",
    "name": "Front camera",
    "note": "Checking the operation of the front camera of the mobile device",
    "status": "blocker",
    "deviceType": "iphone, android"
  },
  {
    "id": "#nfc",
    "type": "auto_manual",
    "name": "NFC",
    "note": "",
    "status": "blocker",
    "deviceType": "iphone, android"
  },
  {
    "id": "#power_connection",
    "type": "auto_manual",
    "name": "Charging the smartphone",
    "note": "",
    "status": "blocker",
    "deviceType": "iphone, android"
  },
  {
    "id": "#charge",
    "type": "auto_manual",
    "name": "Charging the smartphone",
    "note": "",
    "status": "blocker",
    "deviceType": "iphone"
  },
  {
    "id": "#headphones",
    "type": "auto_manual",
    "name": "Headset Connector",
    "note": "",
    "status": "blocker",
    "deviceType": "iphone, android"
  },
  {
    "id": "#outgoing_call",
    "type": "auto_manual",
    "name": "Outgoing call",
    "note": "",
    "status": "blocker",
    "deviceType": "iphone, android"
  },
  {
    "id": "#btn_volume_up",
    "type": "auto_manual",
    "name": "Volume Up Key",
    "note": "",
    "status": "normal",
    "deviceType": "iphone, android"
  },
  {
    "id": "#btn_volume_down",
    "type": "auto_manual",
    "name": "Volume Down",
    "note": "",
    "status": "normal",
    "deviceType": "iphone, android"
  },
  {
    "id": "#btn_back",
    "type": "auto_manual",
    "name": "Back Key",
    "note": "",
    "status": "normal",
    "deviceType": "android"
  },
  {
    "id": "#btn_last",
    "type": "auto_manual",
    "name": "Last Key",
    "note": "",
    "status": "normal",
    "deviceType": "android"
  },
  {
    "id": "#account",
    "type": "auto_manual",
    "name": "Accounts",
    "note": "",
    "status": "normal",
    "deviceType": "android"
  },
  {
    "id": "#stylus",
    "negative": false,
    "type": "manual",
    "name": "Stylus",
    "note": "Only for Samsung Note 4, Samsung Note 5",
    "status": "minor",
    "model": "SM-N910F, SM-920F",
    "deviceType": "android"
  },
  {
    "id": "#abrasions",
    "negative": true,
    "type": "manual",
    "name": "scuffs",
    "note": "Attentively examine the smartphone from different angles",
    "status": "minor",
    "deviceType": "iphone, android"
  },
  {
    "id": "#mini_minor_scratches",
    "negative": true,
    "type": "manual",
    "name": "Minor scratches",
    "note": "Attentively examine a smart phone from different angles. Such scratches do not cling with a fingernail",
    "status": "minor",
    "deviceType": "iphone, android"
  },
  {
    "id": "#minor_scratches",
    "negative": true,
    "type": "manual",
    "name": "Minor scratches over 10 pieces",
    "note": "Attentively examine a smart phone from different angles. Such scratches do not cling with a fingernail",
    "status": "minor",
    "deviceType": "iphone, android"
  },
  {
    "id": "#deep_scratches",
    "negative": true,
    "type": "manual",
    "name": "deep scratches",
    "note": "Carefully inspect the smartphone from different angles. Such scratches cling to the nail",
    "status": "minor",
    "deviceType": "iphone, android"
  },
  {
    "id": "#chipped",
    "negative": true,
    "type": "manual",
    "name": "Chips on the body no more than 2 mm",
    "note": "Attentively examine the smartphone from different angles",
    "status": "minor",
    "deviceType": "iphone, android"
  },
  {
    "id": "#big_chipped",
    "negative": true,
    "type": "manual",
    "name": "Chips on the body more than 2 pieces",
    "note": "Attentively examine the smartphone from different angles",
    "status": "minor",
    "deviceType": "iphone, android"
  },
  {
    "id": "#dust",
    "negative": true,
    "type": "manual",
    "name": "Dust under the glass of the screen",
    "note": "Turn off the display, look at different angles. Repeat the process when the display is on",
    "status": "minor",
    "deviceType": "iphone, android"
  },
  {
    "id": "#damages",
    "negative": true,
    "type": "manual",
    "name": "Cracks, absence of body parts, broken glass, other damage",
    "note": "Attentively examine the smartphone from different angles",
    "status": "minor",
    "deviceType": "iphone, android"
  }
]